<?xml version="1.0" encoding="UTF-8"?>
<svg width="28px" height="28px" viewBox="0 0 28 28" version="1.1" xmlns="http://www.w3.org/2000/svg" xmlns:xlink="http://www.w3.org/1999/xlink">
    <!-- Generator: Sketch 46.1 (44463) - http://www.bohemiancoding.com/sketch -->
    <title>Artboard 5</title>
    <desc>Created with Sketch.</desc>
    <defs></defs>
    <g id="Page-1" stroke="none" stroke-width="1" fill="none" fill-rule="evenodd">
        <g id="Artboard-5">
            <rect id="Rectangle" fill="#6F7579" x="0" y="0" width="28" height="28" rx="5"></rect>
            <g id="placeholder" opacity="0.797158062" transform="translate(7.000000, 4.000000)" fill-rule="nonzero" fill="#FFFFFF">
                <path d="M12.8043995,2.15419033 C11.3877486,0.765107657 9.50409574,0 7.50075892,0 C5.49703098,0 3.61376921,0.765107657 2.1971183,2.15419033 C-0.424585461,4.72449185 -0.750391702,9.56058586 1.49153072,12.4906222 L7.50075892,21 L13.5009913,12.5025111 C15.7519095,9.56058586 15.4261033,4.72449185 12.8043995,2.15419033 Z M7.56998786,9.97132787 C6.06064057,9.97132787 4.83212028,8.76671476 4.83212028,7.28673959 C4.83212028,5.80676443 6.06064057,4.60215132 7.56998786,4.60215132 C9.07933514,4.60215132 10.3078554,5.80676443 10.3078554,7.28673959 C10.3078554,8.76671476 9.07933514,9.97132787 7.56998786,9.97132787 Z" id="Shape"></path>
            </g>
        </g>
    </g>
</svg>